Country,Type,2017,2018,2019,2020,2018-2019 % Change,2019-2020 % Change
Australia,Air,10582.638157692309,11209.900007692308,12673.582303846155,3514.3012732142856,13.1,-72.3
Australia,Hotel,,,568.8451923076921,100.5,,-82.3
Australia,Rail,,,,,,
Brazil,Air,7807.8907,6701.789024390243,12008.876446341465,2661.9341268292683,79.2,-77.8
Brazil,Hotel,,,410.9414634146341,86.59512195121951,,-78.9
Brazil,Rail,,,,,,
Canada,Air,5950.393492792793,5475.540304504505,5976.118014414414,1296.3898256880734,9.1,-78.3
Canada,Hotel,,,331.6233671171175,60.96440741403669,,-81.6
Canada,Rail,,,1.6604487603963962,0.35085774488073396,,-78.9
France,Air,5570.290845238095,4865.116855952381,5868.1553791666665,1032.8841024096384,20.6,-82.4
France,Hotel,,,372.78195684523826,139.84669289168679,,-62.5
France,Rail,,,108.54524497279763,17.40588536550602,,-84.0
Germany,Air,8673.033385074626,7714.373537313432,10006.135343283582,2691.307254029851,29.7,-73.1
Germany,Hotel,,,737.6095895522388,290.40648187650726,,-60.6
Germany,Rail,,,17.426266680268665,2.965543716961194,,-83.0
Greece,Air,,,,,,
Greece,Hotel,,,,,,
Greece,Rail,,,,,,
Hong Kong,Air,9194.265235714285,11529.823746428572,9298.297403571429,1812.8336501818183,-19.4,-80.5
Hong Kong,Hotel,,,531.3267857142857,61.62307977636364,,-88.4
Hong Kong,Rail,,,0.11717433621428572,,,
India,Air,11262.98764,5215.290129999999,12610.59071,1654.474415,141.8,-86.9
India,Hotel,,,447.87,195.99999999999994,,-56.2
India,Rail,,,0.0,,,
Indonesia,Air,,,263.2430072222222,40.60258611111111,,-84.6
Indonesia,Hotel,,,,,,
Indonesia,Rail,,,,,,
Ireland,Air,91.8580042,59.53365916,533.0819855999999,77.889247125,795.4,-85.4
Ireland,Hotel,,,59.951750000000004,111.33384353916666,,85.7
Ireland,Rail,,,0.07679901396,0.06659880991666667,,-13.3
Italy,Air,3609.863234666667,2566.1466373333333,5040.8300813333335,1525.2943400000001,96.4,-69.7
Italy,Hotel,,,377.10116666666664,185.83344218173332,,-50.7
Italy,Rail,,,4.407895015959999,0.56876626168,,-87.1
Japan,Air,4076.8858136842105,3632.2818510526313,3995.006120526316,736.0129731578947,10.0,-81.6
Japan,Hotel,,,26.442105263157895,,,
Japan,Rail,,,,,,
Mainland China,Air,3977.3519307692304,4344.191274358975,7605.807028205128,781.5111572727272,75.1,-89.7
Mainland China,Hotel,,,323.01282051282055,116.22954545454549,,-64.0
Mainland China,Rail,,,0.33650065784615385,0.7970720879090909,,136.9
Malaysia,Air,,,286.2239527333333,3476.9863433333335,,1114.8
Malaysia,Hotel,,,24.733333333333334,,,
Malaysia,Rail,,,,,,
Mexico,Air,6348.729555555556,2496.418516111111,7988.991755555555,374.14434155555557,220.0,-95.3
Mexico,Hotel,,,289.96006944444446,49.99444444444445,,-82.8
Mexico,Rail,,,,,,
Netherlands,Air,2064.15291969697,2670.8815200000004,5622.541857575758,1863.2295833333333,110.5,-66.9
Netherlands,Hotel,,,336.6223484848485,147.72634509303032,,-56.1
Netherlands,Rail,,,3.433094420939394,4.500078207272726,,31.1
New Zealand,Air,6831.938558,5268.236472,15896.287272000001,,201.7,
New Zealand,Hotel,,,28.639999999999997,,,
New Zealand,Rail,,,,,,
Qatar,Air,,,,,,
Qatar,Hotel,,,,,,
Qatar,Rail,,,,,,
Republic of Korea,Air,17269.74943333333,8920.726627777778,21682.278977777776,2721.15137,143.1,-87.4
Republic of Korea,Hotel,,,738.0333333333333,14.711111111111112,,-98.0
Republic of Korea,Rail,,,,,,
Russian Federation,Air,,,,,,
Russian Federation,Hotel,,,,,,
Russian Federation,Rail,,,,,,
Saudi Arabia,Air,,,,,,
Saudi Arabia,Hotel,,,,,,
Saudi Arabia,Rail,,,,,,
Singapore,Air,10223.660810810812,8720.47883963964,12331.760882882883,2022.3088414414415,41.4,-83.6
Singapore,Hotel,,,811.9543355855857,121.97852546423424,,-85.0
Singapore,Rail,,,0.0,,,
South Africa,Air,,,,,,
South Africa,Hotel,,,,,,
South Africa,Rail,,,,,,
Spain,Air,10901.345824074073,10322.782962962963,10041.969092592593,2373.207423148148,-2.7,-76.4
Spain,Hotel,,,381.94803240740765,118.8866780039815,,-68.9
Spain,Rail,,,261.57088460091666,83.66513384946296,,-68.0
Sweden,Air,2337.755275625,2146.0514378125,3193.888734375,493.1038234375,48.8,-84.6
Sweden,Hotel,,,146.23125000000002,55.050829083124995,,-62.4
Sweden,Rail,,,0.0,,,
Switzerland,Air,9339.185116326531,9108.037446938775,11303.28124897959,3201.2025916666666,24.1,-71.7
Switzerland,Hotel,,,735.8161989795918,237.22687074854184,,-67.8
Switzerland,Rail,,,4.441214742204082,0.25164807316666665,,-94.3
Turkey,Air,,,,,,
Turkey,Hotel,,,,,,
Turkey,Rail,,,,,,
United Arab Emirates,Air,18172.111073298427,17307.059602094243,26428.883727748693,6876.253058201058,52.7,-74.0
United Arab Emirates,Hotel,,,1988.2866164921459,956.9570348793651,,-51.9
United Arab Emirates,Rail,,,,,,
United Kingdom,Air,10829.686547337278,10742.248600591714,14775.364698224852,3152.748,37.5,-78.7
United Kingdom,Hotel,,,842.6406804733721,314.53477307328325,,-62.7
United Kingdom,Rail,,,3.9256219720502954,0.594444016680597,,-84.9
United States of America,Air,7534.519425207757,7539.4104016620495,9293.20515235457,2156.6887920446616,23.3,-76.8
United States of America,Hotel,,,458.17702129501686,106.01544070549193,,-76.9
United States of America,Rail,,,23.08309263750692,4.287523390659454,,-81.4
