Region,Country
Europe,Austria
Europe,Belgium
Europe,France
Europe,Germany
Europe,Greece
Europe,Ireland
Europe,Italy
Europe,Netherlands
Europe,Poland
Europe,Portugal
Europe,Spain
Europe,Sweden
Europe,Switzerland
Europe,Russia
Europe,United Kingdom
IMEA,India
IMEA,Qatar
IMEA,Turkey
IMEA,Saudi Arabia
IMEA,South Africa
IMEA,United Arab Emirates
Americas,Barbados
Americas,Brazil
Americas,Canada
Americas,Colombia
Americas,Mexico
Americas,Peru
Americas,United States of America
APR,Australia
APR,Mainland China
APR,Indonesia
APR,Japan
APR,Malaysia
APR,Singapore
APR,Hong Kong
APR,Republic of Korea
APR,New Zealand
APR,Thailand